%time,field.header.seq,field.header.stamp,field.digital0,field.digital1,field.remoteKey,field.pitch,field.roll,field.yaw,field.thrust,field.height,field.free,field.frame,field.config
1320250209493179567,7,1320250209493179567,0,0,0,0,0,0,240,0,0,9,1
1320250209534750661,8,1320250209534750661,0,0,0,1,0,0,240,0,0,10,1
1320250209573155710,9,1320250209573155710,0,0,0,1,0,0,240,0,0,11,1
1320250209613126968,10,1320250209613126968,0,0,0,1,0,0,240,0,0,12,1
1320250209653153330,11,1320250209653153330,0,0,0,2,0,0,240,0,0,13,1
1320250209693101761,12,1320250209693101761,0,0,0,2,0,0,240,0,0,14,1
1320250209733221586,13,1320250209733221586,0,0,0,2,0,0,240,0,0,15,1
1320250209773155464,14,1320250209773155464,0,0,0,3,0,0,240,0,0,16,1
1320250209813121278,15,1320250209813121278,0,0,0,3,0,0,240,0,0,17,1
1320250209853177983,16,1320250209853177983,0,0,0,4,0,0,240,0,0,18,1
1320250209893116304,17,1320250209893116304,0,0,0,4,0,0,240,0,0,19,1
1320250209933334355,18,1320250209933334355,0,0,0,4,0,0,240,0,0,20,1
1320250209973163997,19,1320250209973163997,0,0,0,5,0,0,240,0,0,21,1
1320250210013128823,20,1320250210013128823,0,0,0,5,0,0,240,0,0,22,1
1320250210053168864,21,1320250210053168864,0,0,0,6,0,0,240,0,0,23,1
1320250210093139322,22,1320250210093139322,0,0,0,7,0,0,240,0,0,24,1
1320250210133330746,23,1320250210133330746,0,0,0,7,0,0,240,0,0,25,1
1320250210173153672,24,1320250210173153672,0,0,0,8,0,0,240,0,0,26,1
1320250210213132552,25,1320250210213132552,0,0,0,8,0,0,240,0,0,27,1
1320250210253198341,26,1320250210253198341,0,0,0,9,0,0,240,0,0,28,1
1320250210293512415,27,1320250210293512415,0,0,0,9,0,0,240,0,0,29,1
1320250210333296172,28,1320250210333296172,0,0,0,10,0,0,240,0,0,30,1
1320250210373152285,29,1320250210373152285,0,0,0,11,0,0,240,0,0,31,1
1320250210413110349,30,1320250210413110349,0,0,0,11,0,0,240,0,0,32,1
1320250210453190100,31,1320250210453190100,0,0,0,12,0,0,240,0,0,33,1
1320250210493112910,32,1320250210493112910,0,0,0,12,0,0,240,0,0,34,1
1320250210533278861,33,1320250210533278861,0,0,0,13,0,0,240,0,0,35,1
1320250210573157710,34,1320250210573157710,0,0,0,14,0,0,240,0,0,36,1
1320250210613116089,35,1320250210613116089,0,0,0,14,0,0,240,0,0,37,1
1320250210653167929,36,1320250210653167929,0,0,0,15,0,0,240,0,0,38,1
1320250210693119233,37,1320250210693119233,0,0,0,15,0,0,240,0,0,39,1
1320250210733714617,38,1320250210733714617,0,0,0,16,0,0,240,0,0,40,1
1320250210773142535,39,1320250210773142535,0,0,0,16,0,0,240,0,0,41,1
1320250210813099254,40,1320250210813099254,0,0,0,16,0,0,240,0,0,42,1
1320250210853147764,41,1320250210853147764,0,0,0,17,0,0,240,0,0,43,1
1320250210893103725,42,1320250210893103725,0,0,0,17,0,0,240,0,0,44,1
1320250210933328662,43,1320250210933328662,0,0,0,17,0,0,240,0,0,45,1
1320250210973155366,44,1320250210973155366,0,0,0,17,0,0,240,0,0,46,1
1320250211013147079,45,1320250211013147079,0,0,0,18,0,0,240,0,0,47,1
1320250211053158733,46,1320250211053158733,0,0,0,18,0,0,240,0,0,48,1
1320250211093142017,47,1320250211093142017,0,0,0,18,0,0,240,0,0,49,1
1320250211133275158,48,1320250211133275158,0,0,0,18,0,0,240,0,0,50,1
1320250211173157435,49,1320250211173157435,0,0,0,17,0,0,240,0,0,51,1
1320250211213123928,50,1320250211213123928,0,0,0,17,0,0,240,0,0,52,1
1320250211253155320,51,1320250211253155320,0,0,0,17,0,0,240,0,0,53,1
1320250211293120126,52,1320250211293120126,0,0,0,16,0,0,240,0,0,54,1
1320250211333940805,53,1320250211333940805,0,0,0,16,0,0,240,0,0,55,1
1320250211373159609,54,1320250211373159609,0,0,0,15,0,0,240,0,0,56,1
1320250211413117238,55,1320250211413117238,0,0,0,14,0,0,240,0,0,57,1
1320250211453172911,56,1320250211453172911,0,0,0,14,0,0,240,0,0,58,1
1320250211493118790,57,1320250211493118790,0,0,0,13,0,0,240,0,0,59,1
1320250211533658602,58,1320250211533658602,0,0,0,12,0,0,240,0,0,60,1
1320250211573150786,59,1320250211573150786,0,0,0,11,0,0,240,0,0,61,1
1320250211613130982,60,1320250211613130982,0,0,0,9,0,0,240,0,0,62,1
1320250211653187363,61,1320250211653187363,0,0,0,8,0,0,240,0,0,63,1
1320250211693117217,62,1320250211693117217,0,0,0,7,0,0,240,0,0,64,1
1320250211733486339,63,1320250211733486339,0,0,0,5,0,0,240,0,0,65,1
1320250211773174140,64,1320250211773174140,0,0,0,4,0,0,240,0,0,66,1
1320250211813114170,65,1320250211813114170,0,0,0,3,0,0,240,0,0,67,1
1320250211853185460,66,1320250211853185460,0,0,0,1,0,0,240,0,0,68,1
1320250211893108654,67,1320250211893108654,0,0,0,0,0,0,240,0,0,69,1
1320250211935117678,68,1320250211935117678,0,0,0,-1,0,0,240,0,0,70,1
1320250211973149768,69,1320250211973149768,0,0,0,-3,0,0,240,0,0,71,1
1320250212013119918,70,1320250212013119918,0,0,0,-4,0,0,240,0,0,72,1
1320250212053155439,71,1320250212053155439,0,0,0,-6,0,0,240,0,0,73,1
1320250212093126729,72,1320250212093126729,0,0,0,-7,0,0,240,0,0,74,1
1320250212133378273,73,1320250212133378273,0,0,0,-9,0,0,240,0,0,75,1
1320250212173163170,74,1320250212173163170,0,0,0,-10,0,0,240,0,0,76,1
1320250212213127223,75,1320250212213127223,0,0,0,-11,0,0,240,0,0,77,1
1320250212253156579,76,1320250212253156579,0,0,0,-13,0,0,240,0,0,78,1
1320250212293225089,77,1320250212293225089,0,0,0,-14,0,0,240,0,0,79,1
1320250212333210980,78,1320250212333210980,0,0,0,-14,0,0,240,0,0,80,1
1320250212373146432,79,1320250212373146432,0,0,0,-15,0,0,240,0,0,81,1
1320250212413166362,80,1320250212413166362,0,0,0,-16,0,0,240,0,0,82,1
1320250212453171130,81,1320250212453171130,0,0,0,-16,0,0,240,0,0,83,1
1320250212493110685,82,1320250212493110685,0,0,0,-16,0,0,240,0,0,84,1
1320250212533913814,83,1320250212533913814,0,0,0,-16,0,0,240,0,0,85,1
1320250212573154223,84,1320250212573154223,0,0,0,-16,0,0,240,0,0,86,1
1320250212613200515,85,1320250212613200515,0,0,0,-15,0,0,240,0,0,87,1
1320250212653189168,86,1320250212653189168,0,0,0,-15,0,0,240,0,0,88,1
1320250212693109922,87,1320250212693109922,0,0,0,-14,0,0,240,0,0,89,1
1320250212733567719,88,1320250212733567719,0,0,0,-13,0,0,240,0,0,90,1
1320250212773166817,89,1320250212773166817,0,0,0,-11,0,0,240,0,0,91,1
1320250212813105321,90,1320250212813105321,0,0,0,-10,0,0,240,0,0,92,1
1320250212853181277,91,1320250212853181277,0,0,0,-8,0,0,240,0,0,93,1
1320250212893108313,92,1320250212893108313,0,0,0,-6,0,0,240,0,0,94,1
1320250212938251729,93,1320250212938251729,0,0,0,-4,0,0,240,0,0,95,1
1320250212973131094,94,1320250212973131094,0,0,0,-2,0,0,240,0,0,96,1
1320250213013252108,95,1320250213013252108,0,0,0,0,0,0,240,0,0,97,1
1320250213053148978,96,1320250213053148978,0,0,0,1,0,0,240,0,0,98,1
1320250213093097217,97,1320250213093097217,0,0,0,3,0,0,240,0,0,99,1
1320250213136407931,98,1320250213136407931,0,0,0,5,0,0,240,0,0,100,1
1320250213173157164,99,1320250213173157164,0,0,0,7,0,0,240,0,0,101,1
1320250213213135198,100,1320250213213135198,0,0,0,9,0,0,240,0,0,102,1
1320250213253156247,101,1320250213253156247,0,0,0,10,0,0,240,0,0,103,1
1320250213293115473,102,1320250213293115473,0,0,0,12,0,0,240,0,0,104,1
1320250213333449217,103,1320250213333449217,0,0,0,13,0,0,240,0,0,105,1
1320250213373174309,104,1320250213373174309,0,0,0,14,0,0,240,0,0,106,1
1320250213413202131,105,1320250213413202131,0,0,0,15,0,0,240,0,0,107,1
1320250213453178799,106,1320250213453178799,0,0,0,15,0,0,240,0,0,108,1
1320250213493107287,107,1320250213493107287,0,0,0,15,0,0,240,0,0,109,1
1320250213534280646,108,1320250213534280646,0,0,0,15,0,0,240,0,0,110,1
1320250213573169180,109,1320250213573169180,0,0,0,14,0,0,240,0,0,111,1
1320250213613149045,110,1320250213613149045,0,0,0,14,0,0,240,0,0,112,1
1320250213653199283,111,1320250213653199283,0,0,0,12,0,0,240,0,0,113,1
1320250213693137506,112,1320250213693137506,0,0,0,11,0,0,240,0,0,114,1
1320250213733384426,113,1320250213733384426,0,0,0,9,0,0,240,0,0,115,1
1320250213773275471,114,1320250213773275471,0,0,0,7,0,0,240,0,0,116,1
1320250213813147685,115,1320250213813147685,0,0,0,5,0,0,240,0,0,117,1
1320250213853242543,116,1320250213853242543,0,0,0,3,0,0,240,0,0,118,1
1320250213893111780,117,1320250213893111780,0,0,0,0,0,0,240,0,0,119,1
1320250213933358813,118,1320250213933358813,0,0,0,-1,0,0,240,0,0,120,1
1320250213973223909,119,1320250213973223909,0,0,0,-4,0,0,240,0,0,121,1
1320250214013105320,120,1320250214013105320,0,0,0,-6,0,0,240,0,0,122,1
1320250214053198434,121,1320250214053198434,0,0,0,-8,0,0,240,0,0,123,1
1320250214093149033,122,1320250214093149033,0,0,0,-10,0,0,240,0,0,124,1
1320250214133362397,123,1320250214133362397,0,0,0,-12,0,0,240,0,0,125,1
1320250214173173750,124,1320250214173173750,0,0,0,-13,0,0,240,0,0,126,1
1320250214213122947,125,1320250214213122947,0,0,0,-14,0,0,240,0,0,127,1
1320250214253186956,126,1320250214253186956,0,0,0,-14,0,0,240,0,0,128,1
1320250214293168542,127,1320250214293168542,0,0,0,-14,0,0,240,0,0,129,1
1320250214333389233,128,1320250214333389233,0,0,0,-14,0,0,240,0,0,130,1
1320250214373135290,129,1320250214373135290,0,0,0,-13,0,0,240,0,0,131,1
1320250214413104832,130,1320250214413104832,0,0,0,-12,0,0,240,0,0,132,1
1320250214453186952,131,1320250214453186952,0,0,0,-11,0,0,240,0,0,133,1
1320250214493150841,132,1320250214493150841,0,0,0,-9,0,0,240,0,0,134,1
1320250214536404158,133,1320250214536404158,0,0,0,-6,0,0,240,0,0,135,1
1320250214573148490,134,1320250214573148490,0,0,0,-4,0,0,240,0,0,136,1
1320250214613143584,135,1320250214613143584,0,0,0,-1,0,0,240,0,0,137,1
1320250214653288586,136,1320250214653288586,0,0,0,0,0,0,240,0,0,138,1
1320250214693111490,137,1320250214693111490,0,0,0,3,0,0,240,0,0,139,1
1320250214733312378,138,1320250214733312378,0,0,0,5,0,0,240,0,0,140,1
1320250214773182624,139,1320250214773182624,0,0,0,8,0,0,240,0,0,141,1
1320250214813145224,140,1320250214813145224,0,0,0,10,0,0,240,0,0,142,1
1320250214853207570,141,1320250214853207570,0,0,0,11,0,0,240,0,0,143,1
1320250214893135748,142,1320250214893135748,0,0,0,13,0,0,240,0,0,144,1
1320250214936440825,143,1320250214936440825,0,0,0,13,0,0,240,0,0,145,1
1320250214973139606,144,1320250214973139606,0,0,0,14,0,0,240,0,0,146,1
1320250215013122694,145,1320250215013122694,0,0,0,13,0,0,240,0,0,147,1
1320250215053177563,146,1320250215053177563,0,0,0,13,0,0,240,0,0,148,1
1320250215093134066,147,1320250215093134066,0,0,0,11,0,0,240,0,0,149,1
1320250215134265936,148,1320250215134265936,0,0,0,10,0,0,240,0,0,150,1
1320250215173143241,149,1320250215173143241,0,0,0,7,0,0,240,0,0,151,1
1320250215213110108,150,1320250215213110108,0,0,0,5,0,0,240,0,0,152,1
1320250215253174239,151,1320250215253174239,0,0,0,2,0,0,240,0,0,153,1
1320250215293101367,152,1320250215293101367,0,0,0,0,0,0,240,0,0,154,1
1320250215334223144,153,1320250215334223144,0,0,0,-2,0,0,240,0,0,155,1
1320250215373185070,154,1320250215373185070,0,0,0,-5,0,0,240,0,0,156,1
1320250215413166207,155,1320250215413166207,0,0,0,-8,0,0,240,0,0,157,1
1320250215453196533,156,1320250215453196533,0,0,0,-10,0,0,240,0,0,158,1
1320250215493123854,157,1320250215493123854,0,0,0,-11,0,0,240,0,0,159,1
1320250215534276081,158,1320250215534276081,0,0,0,-12,0,0,240,0,0,160,1
1320250215573137748,159,1320250215573137748,0,0,0,-13,0,0,240,0,0,161,1
1320250215613125624,160,1320250215613125624,0,0,0,-13,0,0,240,0,0,162,1
1320250215653265300,161,1320250215653265300,0,0,0,-12,0,0,240,0,0,163,1
1320250215693100672,162,1320250215693100672,0,0,0,-11,0,0,240,0,0,164,1
1320250215735242692,163,1320250215735242692,0,0,0,-9,0,0,240,0,0,165,1
1320250215773132572,164,1320250215773132572,0,0,0,-7,0,0,240,0,0,166,1
1320250215813099938,165,1320250215813099938,0,0,0,-4,0,0,240,0,0,167,1
1320250215853204255,166,1320250215853204255,0,0,0,-1,0,0,240,0,0,168,1
1320250215893098091,167,1320250215893098091,0,0,0,0,0,0,240,0,0,169,1
1320250215934098257,168,1320250215934098257,0,0,0,3,0,0,240,0,0,170,1
1320250215973153081,169,1320250215973153081,0,0,0,6,0,0,240,0,0,171,1
1320250216013120099,170,1320250216013120099,0,0,0,9,0,0,240,0,0,172,1
1320250216053172406,171,1320250216053172406,0,0,0,10,0,0,240,0,0,173,1
1320250216093158840,172,1320250216093158840,0,0,0,12,0,0,240,0,0,174,1
1320250216134513910,173,1320250216134513910,0,0,0,12,0,0,240,0,0,175,1
1320250216173127681,174,1320250216173127681,0,0,0,12,0,0,240,0,0,176,1
1320250216213166114,175,1320250216213166114,0,0,0,12,0,0,240,0,0,177,1
1320250216253170973,176,1320250216253170973,0,0,0,10,0,0,240,0,0,178,1
1320250216293114579,177,1320250216293114579,0,0,0,8,0,0,240,0,0,179,1
1320250216334323377,178,1320250216334323377,0,0,0,6,0,0,240,0,0,180,1
1320250216373142026,179,1320250216373142026,0,0,0,3,0,0,240,0,0,181,1
1320250216413120593,180,1320250216413120593,0,0,0,0,0,0,240,0,0,182,1
1320250216453232159,181,1320250216453232159,0,0,0,-2,0,0,240,0,0,183,1
1320250216493117399,182,1320250216493117399,0,0,0,-5,0,0,240,0,0,184,1
1320250216533354914,183,1320250216533354914,0,0,0,-8,0,0,240,0,0,185,1
1320250216573128340,184,1320250216573128340,0,0,0,-10,0,0,240,0,0,186,1
1320250216613148663,185,1320250216613148663,0,0,0,-11,0,0,240,0,0,187,1
1320250216653175037,186,1320250216653175037,0,0,0,-12,0,0,240,0,0,188,1
1320250216693134811,187,1320250216693134811,0,0,0,-12,0,0,240,0,0,189,1
1320250216733742150,188,1320250216733742150,0,0,0,-11,0,0,240,0,0,190,1
1320250216773148340,189,1320250216773148340,0,0,0,-10,0,0,240,0,0,191,1
1320250216813118238,190,1320250216813118238,0,0,0,-8,0,0,240,0,0,192,1
1320250216853164291,191,1320250216853164291,0,0,0,-5,0,0,240,0,0,193,1
1320250216893097630,192,1320250216893097630,0,0,0,-2,0,0,240,0,0,194,1
1320250216933243182,193,1320250216933243182,0,0,0,0,0,0,240,0,0,195,1
1320250216973162648,194,1320250216973162648,0,0,0,3,0,0,240,0,0,196,1
1320250217013129184,195,1320250217013129184,0,0,0,6,0,0,240,0,0,197,1
1320250217053178211,196,1320250217053178211,0,0,0,9,0,0,240,0,0,198,1
1320250217093116669,197,1320250217093116669,0,0,0,10,0,0,240,0,0,199,1
1320250217133377114,198,1320250217133377114,0,0,0,11,0,0,240,0,0,200,1
1320250217173148243,199,1320250217173148243,0,0,0,12,0,0,240,0,0,201,1
1320250217213107999,200,1320250217213107999,0,0,0,11,0,0,240,0,0,202,1
1320250217253169970,201,1320250217253169970,0,0,0,9,0,0,240,0,0,203,1
1320250217293121380,202,1320250217293121380,0,0,0,7,0,0,240,0,0,204,1
1320250217336230692,203,1320250217336230692,0,0,0,4,0,0,240,0,0,205,1
1320250217373156343,204,1320250217373156343,0,0,0,1,0,0,240,0,0,206,1
1320250217413127655,205,1320250217413127655,0,0,0,-1,0,0,240,0,0,207,1
1320250217453289351,206,1320250217453289351,0,0,0,-4,0,0,240,0,0,208,1
1320250217493095686,207,1320250217493095686,0,0,0,-7,0,0,240,0,0,209,1
1320250217534156188,208,1320250217534156188,0,0,0,-9,0,0,240,0,0,210,1
1320250217573153951,209,1320250217573153951,0,0,0,-10,0,0,240,0,0,211,1
1320250217613127571,210,1320250217613127571,0,0,0,-11,0,0,240,0,0,212,1
1320250217653227357,211,1320250217653227357,0,0,0,-11,0,0,240,0,0,213,1
1320250217693103592,212,1320250217693103592,0,0,0,-10,0,0,240,0,0,214,1
1320250217734636064,213,1320250217734636064,0,0,0,-8,0,0,240,0,0,215,1
1320250217773170623,214,1320250217773170623,0,0,0,-5,0,0,240,0,0,216,1
1320250217813117568,215,1320250217813117568,0,0,0,-2,0,0,240,0,0,217,1
1320250217853277101,216,1320250217853277101,0,0,0,0,0,0,240,0,0,218,1
1320250217893109600,217,1320250217893109600,0,0,0,4,0,0,240,0,0,219,1
1320250217934454202,218,1320250217934454202,0,0,0,6,0,0,240,0,0,220,1
1320250217973199549,219,1320250217973199549,0,0,0,9,0,0,240,0,0,221,1
1320250218013115898,220,1320250218013115898,0,0,0,10,0,0,240,0,0,222,1
1320250218053190659,221,1320250218053190659,0,0,0,11,0,0,240,0,0,223,1
1320250218093111259,222,1320250218093111259,0,0,0,10,0,0,240,0,0,224,1
1320250218133308160,223,1320250218133308160,0,0,0,9,0,0,240,0,0,225,1
1320250218173208813,224,1320250218173208813,0,0,0,7,0,0,240,0,0,226,1
1320250218213105940,225,1320250218213105940,0,0,0,4,0,0,240,0,0,227,1
1320250218253143483,226,1320250218253143483,0,0,0,1,0,0,240,0,0,228,1
1320250218293101602,227,1320250218293101602,0,0,0,-2,0,0,240,0,0,229,1
1320250218334067239,228,1320250218334067239,0,0,0,-5,0,0,240,0,0,230,1
1320250218373196935,229,1320250218373196935,0,0,0,-7,0,0,240,0,0,231,1
1320250218413164623,230,1320250218413164623,0,0,0,-9,0,0,240,0,0,232,1
1320250218453168886,231,1320250218453168886,0,0,0,-10,0,0,240,0,0,233,1
1320250218493101520,232,1320250218493101520,0,0,0,-10,0,0,240,0,0,234,1
1320250218533879418,233,1320250218533879418,0,0,0,-9,0,0,240,0,0,235,1
1320250218573239788,234,1320250218573239788,0,0,0,-7,0,0,240,0,0,236,1
1320250218613152594,235,1320250218613152594,0,0,0,-4,0,0,240,0,0,237,1
1320250218653234259,236,1320250218653234259,0,0,0,-1,0,0,240,0,0,238,1
1320250218693134594,237,1320250218693134594,0,0,0,1,0,0,240,0,0,239,1
1320250218735431486,238,1320250218735431486,0,0,0,4,0,0,240,0,0,240,1
1320250218773165706,239,1320250218773165706,0,0,0,7,0,0,240,0,0,241,1
1320250218813154936,240,1320250218813154936,0,0,0,9,0,0,240,0,0,242,1
1320250218853230797,241,1320250218853230797,0,0,0,10,0,0,240,0,0,243,1
1320250218893133891,242,1320250218893133891,0,0,0,10,0,0,240,0,0,244,1
1320250218933391795,243,1320250218933391795,0,0,0,8,0,0,240,0,0,245,1
1320250218973300731,244,1320250218973300731,0,0,0,6,0,0,240,0,0,246,1
1320250219013155816,245,1320250219013155816,0,0,0,3,0,0,240,0,0,247,1
1320250219053193453,246,1320250219053193453,0,0,0,0,0,0,240,0,0,248,1
1320250219093138648,247,1320250219093138648,0,0,0,-2,0,0,240,0,0,249,1
1320250219134548955,248,1320250219134548955,0,0,0,-5,0,0,240,0,0,250,1
1320250219173184834,249,1320250219173184834,0,0,0,-8,0,0,240,0,0,251,1
1320250219213204645,250,1320250219213204645,0,0,0,-9,0,0,240,0,0,252,1
1320250219253210756,251,1320250219253210756,0,0,0,-9,0,0,240,0,0,253,1
1320250219293143195,252,1320250219293143195,0,0,0,-9,0,0,240,0,0,254,1
1320250219333691303,253,1320250219333691303,0,0,0,-7,0,0,240,0,0,255,1
1320250219373177442,254,1320250219373177442,0,0,0,-5,0,0,240,0,0,0,1
1320250219413159173,255,1320250219413159173,0,0,0,-1,0,0,240,0,0,1,1
1320250219453188882,256,1320250219453188882,0,0,0,1,0,0,240,0,0,2,1
1320250219493153839,257,1320250219493153839,0,0,0,4,0,0,240,0,0,3,1
1320250219533567046,258,1320250219533567046,0,0,0,7,0,0,240,0,0,4,1
1320250219573142285,259,1320250219573142285,0,0,0,8,0,0,240,0,0,5,1
1320250219613116031,260,1320250219613116031,0,0,0,9,0,0,240,0,0,6,1
1320250219653197136,261,1320250219653197136,0,0,0,9,0,0,240,0,0,7,1
1320250219693093423,262,1320250219693093423,0,0,0,7,0,0,240,0,0,8,1
1320250219733851833,263,1320250219733851833,0,0,0,5,0,0,240,0,0,9,1
1320250219773129098,264,1320250219773129098,0,0,0,2,0,0,240,0,0,10,1
1320250219813106429,265,1320250219813106429,0,0,0,-1,0,0,240,0,0,11,1
1320250219853193368,266,1320250219853193368,0,0,0,-4,0,0,240,0,0,12,1
1320250219893138798,267,1320250219893138798,0,0,0,-6,0,0,240,0,0,13,1
1320250219933471253,268,1320250219933471253,0,0,0,-8,0,0,240,0,0,14,1
1320250219973183232,269,1320250219973183232,0,0,0,-9,0,0,240,0,0,15,1
1320250220013112518,270,1320250220013112518,0,0,0,-8,0,0,240,0,0,16,1
1320250220053173520,271,1320250220053173520,0,0,0,-6,0,0,240,0,0,17,1
1320250220093097872,272,1320250220093097872,0,0,0,-4,0,0,240,0,0,18,1
1320250220134006494,273,1320250220134006494,0,0,0,-1,0,0,240,0,0,19,1
1320250220173160475,274,1320250220173160475,0,0,0,2,0,0,240,0,0,20,1
1320250220213104775,275,1320250220213104775,0,0,0,5,0,0,240,0,0,21,1
1320250220253191077,276,1320250220253191077,0,0,0,7,0,0,240,0,0,22,1
1320250220293099115,277,1320250220293099115,0,0,0,8,0,0,240,0,0,23,1
1320250220334472736,278,1320250220334472736,0,0,0,8,0,0,240,0,0,24,1
1320250220373140010,279,1320250220373140010,0,0,0,7,0,0,240,0,0,25,1
1320250220413097678,280,1320250220413097678,0,0,0,5,0,0,240,0,0,26,1
1320250220453194539,281,1320250220453194539,0,0,0,2,0,0,240,0,0,27,1
1320250220493104637,282,1320250220493104637,0,0,0,0,0,0,240,0,0,28,1
1320250220535107310,283,1320250220535107310,0,0,0,-3,0,0,240,0,0,29,1
1320250220573139219,284,1320250220573139219,0,0,0,-6,0,0,240,0,0,30,1
1320250220613121422,285,1320250220613121422,0,0,0,-8,0,0,240,0,0,31,1
1320250220653252978,286,1320250220653252978,0,0,0,-8,0,0,240,0,0,32,1
1320250220693104417,287,1320250220693104417,0,0,0,-7,0,0,240,0,0,33,1
1320250220734048181,288,1320250220734048181,0,0,0,-6,0,0,240,0,0,34,1
1320250220773171389,289,1320250220773171389,0,0,0,-3,0,0,240,0,0,35,1
1320250220813096140,290,1320250220813096140,0,0,0,0,0,0,240,0,0,36,1
1320250220853161036,291,1320250220853161036,0,0,0,3,0,0,240,0,0,37,1
1320250220893151593,292,1320250220893151593,0,0,0,5,0,0,240,0,0,38,1
1320250220934136018,293,1320250220934136018,0,0,0,7,0,0,240,0,0,39,1
1320250220973197888,294,1320250220973197888,0,0,0,8,0,0,240,0,0,40,1
1320250221013097532,295,1320250221013097532,0,0,0,7,0,0,240,0,0,41,1
1320250221053201386,296,1320250221053201386,0,0,0,5,0,0,240,0,0,42,1
1320250221093110307,297,1320250221093110307,0,0,0,3,0,0,240,0,0,43,1
1320250221133890071,298,1320250221133890071,0,0,0,0,0,0,240,0,0,44,1
1320250221173183420,299,1320250221173183420,0,0,0,-2,0,0,240,0,0,45,1
1320250221213108516,300,1320250221213108516,0,0,0,-5,0,0,240,0,0,46,1
1320250221253185329,301,1320250221253185329,0,0,0,-7,0,0,240,0,0,47,1
1320250221293107343,302,1320250221293107343,0,0,0,-7,0,0,240,0,0,48,1
1320250221334638954,303,1320250221334638954,0,0,0,-7,0,0,240,0,0,49,1
1320250221373166462,304,1320250221373166462,0,0,0,-5,0,0,240,0,0,50,1
1320250221413100040,305,1320250221413100040,0,0,0,-2,0,0,240,0,0,51,1
1320250221453240724,306,1320250221453240724,0,0,0,0,0,0,240,0,0,52,1
1320250221493103132,307,1320250221493103132,0,0,0,3,0,0,240,0,0,53,1
1320250221533225184,308,1320250221533225184,0,0,0,5,0,0,240,0,0,54,1
1320250221573176270,309,1320250221573176270,0,0,0,7,0,0,240,0,0,55,1
1320250221613096833,310,1320250221613096833,0,0,0,7,0,0,240,0,0,56,1
1320250221653164636,311,1320250221653164636,0,0,0,6,0,0,240,0,0,57,1
1320250221693105756,312,1320250221693105756,0,0,0,4,0,0,240,0,0,58,1
1320250221734296547,313,1320250221734296547,0,0,0,1,0,0,240,0,0,59,1
1320250221773175729,314,1320250221773175729,0,0,0,-1,0,0,240,0,0,60,1
1320250221813108021,315,1320250221813108021,0,0,0,-4,0,0,240,0,0,61,1
1320250221853195142,316,1320250221853195142,0,0,0,-6,0,0,240,0,0,62,1
1320250221893133847,317,1320250221893133847,0,0,0,-7,0,0,240,0,0,63,1
1320250221933470863,318,1320250221933470863,0,0,0,-6,0,0,240,0,0,64,1
1320250221973197820,319,1320250221973197820,0,0,0,-5,0,0,240,0,0,65,1
1320250222013100393,320,1320250222013100393,0,0,0,-2,0,0,240,0,0,66,1
1320250222053177765,321,1320250222053177765,0,0,0,0,0,0,240,0,0,67,1
1320250222093113590,322,1320250222093113590,0,0,0,3,0,0,240,0,0,68,1
1320250222134532484,323,1320250222134532484,0,0,0,5,0,0,240,0,0,69,1
1320250222173146727,324,1320250222173146727,0,0,0,6,0,0,240,0,0,70,1
1320250222213100812,325,1320250222213100812,0,0,0,6,0,0,240,0,0,71,1
1320250222253159646,326,1320250222253159646,0,0,0,5,0,0,240,0,0,72,1
1320250222293253569,327,1320250222293253569,0,0,0,3,0,0,240,0,0,73,1
1320250222333260058,328,1320250222333260058,0,0,0,0,0,0,240,0,0,74,1
1320250222373148841,329,1320250222373148841,0,0,0,-2,0,0,240,0,0,75,1
1320250222413115052,330,1320250222413115052,0,0,0,-5,0,0,240,0,0,76,1
1320250222453186755,331,1320250222453186755,0,0,0,-6,0,0,240,0,0,77,1
1320250222493120380,332,1320250222493120380,0,0,0,-6,0,0,240,0,0,78,1
1320250222533491882,333,1320250222533491882,0,0,0,-5,0,0,240,0,0,79,1
1320250222573138348,334,1320250222573138348,0,0,0,-3,0,0,240,0,0,80,1
1320250222613100282,335,1320250222613100282,0,0,0,0,0,0,240,0,0,81,1
1320250222653190017,336,1320250222653190017,0,0,0,2,0,0,240,0,0,82,1
1320250222693107474,337,1320250222693107474,0,0,0,4,0,0,240,0,0,83,1
1320250222733288444,338,1320250222733288444,0,0,0,6,0,0,240,0,0,84,1
1320250222773143672,339,1320250222773143672,0,0,0,6,0,0,240,0,0,85,1
1320250222813113443,340,1320250222813113443,0,0,0,5,0,0,240,0,0,86,1
1320250222853183163,341,1320250222853183163,0,0,0,3,0,0,240,0,0,87,1
1320250222893140605,342,1320250222893140605,0,0,0,0,0,0,240,0,0,88,1
1320250222935806094,343,1320250222935806094,0,0,0,-2,0,0,240,0,0,89,1
1320250222973164391,344,1320250222973164391,0,0,0,-4,0,0,240,0,0,90,1
1320250223013163019,345,1320250223013163019,0,0,0,-5,0,0,240,0,0,91,1
1320250223053188891,346,1320250223053188891,0,0,0,-6,0,0,240,0,0,92,1
1320250223093136704,347,1320250223093136704,0,0,0,-4,0,0,240,0,0,93,1
1320250223133420414,348,1320250223133420414,0,0,0,-2,0,0,240,0,0,94,1
1320250223173203785,349,1320250223173203785,0,0,0,0,0,0,240,0,0,95,1
1320250223213158152,350,1320250223213158152,0,0,0,2,0,0,240,0,0,96,1
1320250223253204617,351,1320250223253204617,0,0,0,4,0,0,240,0,0,97,1
1320250223293137709,352,1320250223293137709,0,0,0,5,0,0,240,0,0,98,1
1320250223333437262,353,1320250223333437262,0,0,0,5,0,0,240,0,0,99,1
1320250223373167783,354,1320250223373167783,0,0,0,4,0,0,240,0,0,100,1
1320250223413154094,355,1320250223413154094,0,0,0,1,0,0,240,0,0,101,1
1320250223453181900,356,1320250223453181900,0,0,0,0,0,0,240,0,0,102,1
1320250223493103603,357,1320250223493103603,0,0,0,-3,0,0,240,0,0,103,1
1320250223533335419,358,1320250223533335419,0,0,0,-5,0,0,240,0,0,104,1
1320250223573178411,359,1320250223573178411,0,0,0,-5,0,0,240,0,0,105,1
1320250223613208304,360,1320250223613208304,0,0,0,-4,0,0,240,0,0,106,1
1320250223653189281,361,1320250223653189281,0,0,0,-3,0,0,240,0,0,107,1
1320250223693163703,362,1320250223693163703,0,0,0,0,0,0,240,0,0,108,1
1320250223733372527,363,1320250223733372527,0,0,0,2,0,0,240,0,0,109,1
1320250223773178383,364,1320250223773178383,0,0,0,4,0,0,240,0,0,110,1
1320250223813236376,365,1320250223813236376,0,0,0,5,0,0,240,0,0,111,1
1320250223853215500,366,1320250223853215500,0,0,0,5,0,0,240,0,0,112,1
1320250223893120727,367,1320250223893120727,0,0,0,3,0,0,240,0,0,113,1
1320250223937595018,368,1320250223937595018,0,0,0,1,0,0,240,0,0,114,1
1320250223973162089,369,1320250223973162089,0,0,0,0,0,0,240,0,0,115,1
1320250224013206278,370,1320250224013206278,0,0,0,-3,0,0,240,0,0,116,1
1320250224053193257,371,1320250224053193257,0,0,0,-4,0,0,240,0,0,117,1
1320250224093104576,372,1320250224093104576,0,0,0,-5,0,0,240,0,0,118,1
1320250224136338162,373,1320250224136338162,0,0,0,-4,0,0,240,0,0,119,1
1320250224173206575,374,1320250224173206575,0,0,0,-2,0,0,240,0,0,120,1
1320250224213374793,375,1320250224213374793,0,0,0,0,0,0,240,0,0,121,1
1320250224213406283,376,1320250224213406283,0,0,0,0,0,0,240,0,0,121,1
